…
``` r
correlation_results = filtered_data %>%
  group_by(neighbourhood_name) %>%
  summarize(correlation = cor(age, diameter, use = "complete.obs"), 
            .groups = "drop") 

correlation_results
```

    ## # A tibble: 22 × 2
    ##    neighbourhood_name       correlation
    ##    <chr>                          <dbl>
    ##  1 ARBUTUS-RIDGE                 0.135 
    ##  2 DOWNTOWN                      0.223 
    ##  3 DUNBAR-SOUTHLANDS             0.0399
    ##  4 FAIRVIEW                      0.144 
    ##  5 GRANDVIEW-WOODLAND            0.0896
    ##  6 HASTINGS-SUNRISE              0.228 
    ##  7 KENSINGTON-CEDAR COTTAGE      0.120 
    ##  8 KERRISDALE                    0.0845
    ##  9 KILLARNEY                    -0.0444
    ## 10 KITSILANO                     0.0624
    ## # ℹ 12 more rows
…
